{"type":"FeatureCollection", "features": [
{"type":"Feature","geometry":{"type":"Polygon","coordinates":[[[22.676577642938756,46.40583710251029],[22.748718369469913,46.351218992815376],[22.656889924137268,46.23543707438336],[22.43679995626259,46.20795691809215],[22.435244456362014,46.01664075924646],[22.35279733222763,45.972697507016996],[22.12834842303659,45.93347011068279],[21.967473600443423,45.99435587465285],[21.76971878985383,45.91689540091111],[21.524240238506387,46.010334047436764],[21.110211893505003,45.9770772847261],[20.705315587804616,46.16134859942518],[20.748840974689212,46.250623683084356],[21.17004405101786,46.29804085503029],[21.32988223107132,46.63156848075217],[21.441481684667476,46.651444971768434],[22.028358779351468,46.64475657523633],[22.168399366331954,46.603874255550814],[22.175501483157035,46.53640515263726],[22.424139768846974,46.393331717645566],[22.676577642938756,46.40583710251029]]]},"properties":{"countyId":2,"countyCode":29,"name":"Arad","mnemonic":"AR","regionId":5,"region":"Vest","pop1948":476207,"pop1956":475620,"pop1966":481248,"pop1977":512020,"pop1992":487617,"pop2002":461791,"pop2011":430629,"sortCode":2,"version":"2019/12/19"}},
{"type":"Feature","geometry":{"type":"Polygon","coordinates":[[[25.321583850308134,45.381103324187976],[25.29371352200593,45.23209542584549],[25.146642636859546,45.12914431108116],[25.19687294686691,45.01857333779252],[25.167401750808597,44.92227204762632],[25.184641538775317,44.71582160544896],[25.29258819441622,44.551458809493504],[25.234758371174003,44.42426568195404],[24.884028050230736,44.382649752126696],[24.754559279493357,44.391371334646976],[24.68339923596106,44.73763784558172],[24.594637409127987,44.75100494389761],[24.542538244407684,44.86139264146338],[24.438128302078393,44.845388317670974],[24.499750007223902,44.945439947623775],[24.513300483204663,45.18893737167347],[24.479034969112522,45.43779690656799],[24.523137459570233,45.580577071997446],[24.684930956153977,45.60412439036925],[25.103219856288856,45.58520799148645],[25.321583850308134,45.381103324187976]]]},"properties":{"countyId":3,"countyCode":38,"name":"Argeș","mnemonic":"AG","regionId":3,"region":"Sud","pop1948":448964,"pop1956":483741,"pop1966":529833,"pop1977":631918,"pop1992":681206,"pop2002":652625,"pop2011":612431,"sortCode":3,"version":"2019/12/19"}},
{"type":"Feature","geometry":{"type":"Polygon","coordinates":[[[27.20622371456063,46.76986547943581],[27.326551448164896,46.69797819498487],[27.328010403603425,46.58564126894048],[27.476098571365263,46.32994432010192],[27.49282516348876,46.159230086682385],[27.309387078578144,46.205428214714765],[27.13082136454281,46.14977292561063],[27.07395027537115,46.087562366072866],[26.923367824764746,46.06552052147234],[26.704592964343536,46.09389047570356],[26.58665651999118,46.04057465851676],[26.43999058459976,46.03889233816711],[26.263444450566542,46.246354008646705],[26.29283613579122,46.33424711413504],[25.987178714731932,46.43912053382977],[26.035058078479814,46.544655597411214],[25.975163293721756,46.69732829496771],[26.100735740657715,46.646934254695225],[26.39047215733138,46.651020682368966],[26.569933312091226,46.67870330866115],[26.66486259598441,46.73635810008087],[27.20622371456063,46.76986547943581]]]},"properties":{"countyId":4,"countyCode":47,"name":"Bacău","mnemonic":"BC","regionId":1,"region":"Nord-Est","pop1948":414996,"pop1956":507937,"pop1966":598321,"pop1977":667791,"pop1992":737512,"pop2002":706623,"pop2011":616168,"sortCode":4,"version":"2019/12/19"}},
{"type":"Feature","geometry":{"type":"Polygon","coordinates":[[[22.61267904880083,47.33475337688764],[22.516797113808945,47.23269803727388],[22.52074754557739,47.10681413491406],[22.728178898734495,47.00750297820381],[22.778899172807304,46.89691206046054],[22.712500409624493,46.76329874873202],[22.81195243969267,46.56887102413852],[22.67471709060026,46.506572802784056],[22.676577642938756,46.40583710251029],[22.424139768846974,46.393331717645566],[22.175501483157035,46.53640515263726],[22.168399366331954,46.603874255550814],[22.028358779351468,46.64475657523633],[21.441481684667476,46.651444971768434],[21.52933888770685,46.72076772059302],[21.72613703587519,47.09846996392765],[21.85805594218847,47.187024869579034],[22.024062409187174,47.519867204425246],[22.18082411108986,47.60009608292601],[22.362620109969114,47.42756835731824],[22.529384506911647,47.41861105477708],[22.61267904880083,47.33475337688764]]]},"properties":{"countyId":5,"countyCode":56,"name":"Bihor","mnemonic":"BH","regionId":6,"region":"Nord-Vest","pop1948":536323,"pop1956":574488,"pop1966":586460,"pop1977":633094,"pop1992":638863,"pop2002":600246,"pop2011":575398,"sortCode":5,"version":"2019/12/19"}},
{"type":"Feature","geometry":{"type":"Polygon","coordinates":[[[24.960837896041234,47.596865762812385],[25.093785286634883,47.50397608785952],[25.05060128671852,47.37749811910603],[25.063384744406417,47.13655325752687],[24.870211374147214,47.1048559195554],[24.743004500293182,46.98594643954016],[24.593906349409178,46.94489588010499],[24.450326919068555,46.76573931598987],[24.301146758165203,46.75315266254],[24.179577719104326,46.804709993658264],[24.214035663761162,46.90779113257614],[24.108068150206652,46.98527002190807],[24.096514753111624,47.12700540758123],[23.936031050479905,47.19929257740959],[24.02271522096474,47.36196180263207],[24.153605637085114,47.50285975897779],[24.23549119840149,47.49990203121405],[24.39137246467111,47.604461797500406],[24.55704210821184,47.5713756895417],[24.807242651796578,47.5666677822573],[24.960837896041234,47.596865762812385]]]},"properties":{"countyId":6,"countyCode":65,"name":"Bistrița-Năsăud","mnemonic":"BN","regionId":6,"region":"Nord-Vest","pop1948":233650,"pop1956":255789,"pop1966":269954,"pop1977":286628,"pop1992":326820,"pop2002":311657,"pop2011":286225,"sortCode":6,"version":"2019/12/19"}},
{"type":"Feature","geometry":{"type":"Polygon","coordinates":[[[27.39136585958243,47.58948461395421],[27.100019285736753,47.54791924739736],[26.990515232334015,47.49256223756926],[26.700574445623612,47.47172917421828],[26.55445097831697,47.509752849143666],[26.53609665500557,47.61941707953789],[26.302570415105734,47.85556739660887],[26.098815609394133,47.97881575642894],[26.188041622085787,47.99548113326445],[26.32783795451346,48.17621593027558],[26.630498974577886,48.26013519985992],[26.806477260287103,48.25448266620372],[27.00428833738596,48.12276223562977],[27.178144143772503,47.94685816963472],[27.314468227449456,47.64362419801207],[27.39136585958243,47.58948461395421]]]},"properties":{"countyId":7,"countyCode":74,"name":"Botoșani","mnemonic":"BT","regionId":1,"region":"Nord-Est","pop1948":385236,"pop1956":428050,"pop1966":452406,"pop1977":451217,"pop1992":461305,"pop2002":452834,"pop2011":412626,"sortCode":7,"version":"2019/12/19"}},
{"type":"Feature","geometry":{"type":"Polygon","coordinates":[[[28.03052649606022,45.40434503451008],[27.994819535814685,45.28675894146491],[28.11605574572321,45.258017066522406],[28.136463750413284,44.88193646816984],[28.074119178036046,44.8039037070081],[27.881017521888502,44.76309299108199],[27.341100997262608,44.80262509036348],[27.203468131631514,44.78708974399881],[27.280843971647386,44.99511306717819],[27.197630925058352,45.02799905933851],[27.14992623757313,45.170604272066385],[27.31935209037788,45.26151016950493],[27.4347348776612,45.39471862913225],[27.55852405586415,45.48839240074011],[27.82356106266895,45.39651625333625],[28.03052649606022,45.40434503451008]]]},"properties":{"countyId":9,"countyCode":92,"name":"Brăila","mnemonic":"BR","regionId":2,"region":"Sud-Est","pop1948":271251,"pop1956":297276,"pop1966":339954,"pop1977":377954,"pop1992":392031,"pop2002":373174,"pop2011":321212,"sortCode":9,"version":"2019/12/19"}},
{"type":"Feature","geometry":{"type":"Polygon","coordinates":[[[27.4347348776612,45.39471862913225],[27.31935209037788,45.26151016950493],[27.14992623757313,45.170604272066385],[27.197630925058352,45.02799905933851],[27.280843971647386,44.99511306717819],[27.203468131631514,44.78708974399881],[27.007935756071806,44.824473151304],[26.681143211079313,44.810727601156586],[26.605560284758962,44.85700920744339],[26.491984738632866,45.005375928212786],[26.4220267178223,45.17547345459722],[26.255945615729416,45.20849733784698],[26.233613440193572,45.314639111475984],[26.072725670281166,45.5058029345768],[26.093341610170246,45.51632129967391],[26.212825913498943,45.621846182946015],[26.282711099088708,45.58696250967096],[26.392100780208903,45.802405275507034],[26.530065916925224,45.640851375832455],[26.678953481061715,45.60959271557796],[26.833899674349347,45.51784614324267],[26.97193925800788,45.535150922536275],[27.143414049813494,45.41037968205175],[27.4347348776612,45.39471862913225]]]},"properties":{"countyId":10,"countyCode":109,"name":"Buzău","mnemonic":"BZ","regionId":2,"region":"Sud-Est","pop1948":430225,"pop1956":465829,"pop1966":480951,"pop1977":508424,"pop1992":516961,"pop2002":496214,"pop2011":451069,"sortCode":10,"version":"2019/12/19"}},
{"type":"Feature","geometry":{"type":"Polygon","coordinates":[[[22.426482800553764,45.66889503842564],[22.633005325180697,45.57123267379074],[22.71271632634953,45.415646708401006],[22.68625118089735,45.257972051419344],[22.558970810258735,45.15706332165272],[22.656637356302834,45.10817772970089],[22.48660991097985,44.94929997937812],[22.420373382638783,44.75846835233261],[22.263161195985667,44.7847533229691],[22.13917008047989,44.66021453597621],[22.016154579123054,44.59921511952654],[21.796556931917824,44.66302593592499],[21.641159828956027,44.65931569852523],[21.5915224344561,44.75556617013557],[21.392231143207656,44.782921746125744],[21.366932916417017,44.864575884318945],[21.56013454236249,44.88901410398913],[21.406765928046674,44.97852324579072],[21.527485403365333,45.13793354093466],[21.479221877223168,45.1930858542119],[21.55610761646752,45.27243983107994],[21.44509344315707,45.39038844483736],[21.458709890513102,45.4767761054464],[21.674131154645814,45.585894638955274],[21.787257046244125,45.53294804785087],[22.074047231377858,45.57194399859435],[22.316485960602005,45.65985690887084],[22.426482800553764,45.66889503842564]]]},"properties":{"countyId":11,"countyCode":118,"name":"Caraș-Severin","mnemonic":"CS","regionId":5,"region":"Vest","pop1948":302254,"pop1956":327787,"pop1966":358726,"pop1977":385577,"pop1992":376347,"pop2002":333219,"pop2011":295579,"sortCode":11,"version":"2019/12/19"}},
{"type":"Feature","geometry":{"type":"Polygon","coordinates":[[[28.995053002337862,44.67903421155336],[28.870064535606684,44.52017775722294],[28.63951317063101,44.32424028708876],[28.666810963034603,43.98545272979189],[28.57900718314154,43.738736450146945],[28.236408992627247,43.75850651585244],[27.994196344189444,43.84290074137522],[27.94424694071445,43.984810233581314],[27.71001684797869,43.95940846913144],[27.611925171641598,44.01222253934833],[27.399409108772833,44.012385477633075],[27.27135599915705,44.12635218804566],[27.453439692869434,44.125090526369995],[27.629392085966487,44.20533859193972],[27.93613262357736,44.25063868354908],[28.017385629757328,44.34026564616973],[28.110471414961868,44.4372470494526],[27.881017521888502,44.76309299108199],[28.074119178036046,44.8039037070081],[28.15348310731707,44.80031302235028],[28.365513653708632,44.69161419851682],[28.778620358638282,44.65499835427003],[28.995053002337862,44.67903421155336]]]},"properties":{"countyId":13,"countyCode":136,"name":"Constanța","mnemonic":"CT","regionId":2,"region":"Sud-Est","pop1948":311062,"pop1956":369940,"pop1966":465752,"pop1977":608817,"pop1992":748769,"pop2002":715151,"pop2011":684082,"sortCode":14,"version":"2019/12/19"}},
{"type":"Feature","geometry":{"type":"Polygon","coordinates":[[[28.116051514336373,46.107641688177125],[28.08587784166408,46.00913110471334],[28.10886092226997,45.83108915801108],[28.17415047490652,45.64593685624619],[28.089502699882328,45.61012949235987],[28.210776179169844,45.4671879147909],[28.03052649606022,45.40434503451008],[27.82356106266895,45.39651625333625],[27.55852405586415,45.48839240074011],[27.508823013696468,45.624503571],[27.36235916271628,45.72938665287836],[27.22702598781544,46.00914346153908],[27.28511906143891,46.07935095753963],[27.503059876111752,46.13963805680103],[27.762425503795118,46.12813680971668],[27.926192010058475,46.15248252660642],[28.116051514336373,46.107641688177125]]]},"properties":{"countyId":17,"countyCode":172,"name":"Galați","mnemonic":"GL","regionId":2,"region":"Sud-Est","pop1948":341797,"pop1956":396138,"pop1966":474279,"pop1977":581561,"pop1992":641011,"pop2002":619556,"pop2011":536167,"sortCode":18,"version":"2019/12/19"}},
{"type":"Feature","geometry":{"type":"Polygon","coordinates":[[[25.661585098162647,47.0916622239671],[25.793125677600973,46.97879994680528],[25.765384611576973,46.88446874265802],[25.804339419242712,46.706779338407934],[25.975163293721756,46.69732829496771],[26.035058078479814,46.544655597411214],[25.987178714731932,46.43912053382977],[26.29283613579122,46.33424711413504],[26.263444450566542,46.246354008646705],[26.164584852557113,46.16071379052766],[25.847050695283453,46.124309956262444],[25.69875212739242,46.276346435931046],[25.505659573677548,46.18534833508497],[25.45124630447579,46.10410936311214],[25.329678222416902,46.17828653328357],[25.17325537500746,46.16553389301431],[25.069200541488676,46.24501245890286],[24.937590776545143,46.24898677764897],[24.876132894613207,46.382174769240976],[25.025010080085327,46.478418435850166],[25.022453271065853,46.54048728772177],[25.22094452949557,46.625038260090555],[25.317910494268713,46.76951391748084],[25.25687173690681,46.857734686256066],[25.28826519463083,46.991948121653586],[25.246712580261423,47.09793421486985],[25.425131982258534,47.18385741441736],[25.661585098162647,47.0916622239671]]]},"properties":{"countyId":19,"countyCode":190,"name":"Harghita","mnemonic":"HR","regionId":7,"region":"Centru","pop1948":258495,"pop1956":273964,"pop1966":282392,"pop1977":326310,"pop1992":348335,"pop2002":326222,"pop2011":310867,"sortCode":21,"version":"2019/12/19"}},
{"type":"Feature","geometry":{"type":"Polygon","coordinates":[[[26.605560284758962,44.85700920744339],[26.681143211079313,44.810727601156586],[27.007935756071806,44.824473151304],[27.203468131631514,44.78708974399881],[27.341100997262608,44.80262509036348],[27.881017521888502,44.76309299108199],[28.110471414961868,44.4372470494526],[28.017385629757328,44.34026564616973],[27.518514573971537,44.49716189977419],[27.206178043051466,44.483853983333915],[26.97173407975574,44.5289599855993],[26.79629127304699,44.51103539426759],[26.4160701043247,44.52169759700255],[26.374175031913598,44.72049102195561],[26.301827103308575,44.768889606989426],[26.605560284758962,44.85700920744339]]]},"properties":{"countyId":21,"countyCode":216,"name":"Ialomița","mnemonic":"IL","regionId":3,"region":"Sud","pop1948":244750,"pop1956":274655,"pop1966":291373,"pop1977":295965,"pop1992":306145,"pop2002":296572,"pop2011":274148,"sortCode":23,"version":"2019/12/19"}},
{"type":"Feature","geometry":{"type":"Polygon","coordinates":[[[24.94710090272066,47.729138747399595],[25.05306290473296,47.64141172746149],[24.960837896041234,47.596865762812385],[24.807242651796578,47.5666677822573],[24.55704210821184,47.5713756895417],[24.39137246467111,47.604461797500406],[24.23549119840149,47.49990203121405],[24.153605637085114,47.50285975897779],[24.02271522096474,47.36196180263207],[23.841384302482034,47.340020740563205],[23.72745296508915,47.32103872228575],[23.645357945108586,47.39296553975226],[23.49277086077758,47.36602121070291],[23.357586334933256,47.4159200373068],[23.106106873372834,47.44237055121647],[23.053116963886755,47.555364839715324],[23.22951196396989,47.5541546131382],[23.45087319147313,47.76181399647515],[23.594091406254115,47.84913666300173],[23.49360356978944,47.967824887236475],[23.52569041348435,48.00478386228523],[23.771807068302174,47.99494075209417],[23.850987274473486,47.93690487739811],[24.009048119382012,47.96725637804579],[24.22826395363993,47.89647968239675],[24.435868665946337,47.97050819131758],[24.62337055069668,47.95176815658348],[24.70578564311103,47.84012092198927],[24.82774006208447,47.82047307675193],[24.94710090272066,47.729138747399595]]]},"properties":{"countyId":24,"countyCode":243,"name":"Maramureș","mnemonic":"MM","regionId":6,"region":"Nord-Vest","pop1948":321287,"pop1956":367114,"pop1966":427645,"pop1977":492860,"pop1992":540099,"pop2002":510110,"pop2011":478659,"sortCode":26,"version":"2019/12/19"}},
{"type":"Feature","geometry":{"type":"Polygon","coordinates":[[[23.45504252902826,44.56957307871764],[23.199829521137357,44.468022912151795],[23.218201427140663,44.37570029100817],[23.09391429226243,44.26245672670934],[23.109882668795954,44.15015892352755],[22.96386318765465,44.098543069926976],[22.673409466480997,44.216834999530974],[22.671879509905754,44.283607538673074],[22.523911057257827,44.3393126808495],[22.473929935922957,44.480637628344496],[22.58217802839274,44.549326070921154],[22.56882354471687,44.6370913789443],[22.463903106283826,44.714774071861854],[22.274397357246993,44.62543931696975],[22.187270654662502,44.48496099618016],[22.076255968244073,44.50528531991319],[22.016154579123054,44.59921511952654],[22.13917008047989,44.66021453597621],[22.263161195985667,44.7847533229691],[22.420373382638783,44.75846835233261],[22.48660991097985,44.94929997937812],[22.656637356302834,45.10817772970089],[22.856847632072,44.98995330078826],[22.908374518316332,44.826407706337854],[23.11070206640356,44.68915575332785],[23.293487192587254,44.67083098951802],[23.45504252902826,44.56957307871764]]]},"properties":{"countyId":25,"countyCode":252,"name":"Mehedinți","mnemonic":"MH","regionId":4,"region":"Sud-Vest","pop1948":304788,"pop1956":304091,"pop1966":310021,"pop1977":322371,"pop1992":332673,"pop2002":306732,"pop2011":265390,"sortCode":27,"version":"2019/12/19"}},
{"type":"Feature","geometry":{"type":"Polygon","coordinates":[[[25.246712580261423,47.09793421486985],[25.28826519463083,46.991948121653586],[25.25687173690681,46.857734686256066],[25.317910494268713,46.76951391748084],[25.22094452949557,46.625038260090555],[25.022453271065853,46.54048728772177],[25.025010080085327,46.478418435850166],[24.876132894613207,46.382174769240976],[24.937590776545143,46.24898677764897],[25.069200541488676,46.24501245890286],[25.17325537500746,46.16553389301431],[25.019550495012762,46.14197353295609],[24.946553095018434,46.079122988700206],[24.67249961005646,46.105087480106505],[24.676558017594843,46.25016483606039],[24.231314937452957,46.25965334789618],[23.995782887274256,46.37182043887416],[23.98527786280566,46.43093092289744],[24.179577719104326,46.804709993658264],[24.301146758165203,46.75315266254],[24.450326919068555,46.76573931598987],[24.593906349409178,46.94489588010499],[24.743004500293182,46.98594643954016],[24.870211374147214,47.1048559195554],[25.063384744406417,47.13655325752687],[25.246712580261423,47.09793421486985]]]},"properties":{"countyId":26,"countyCode":261,"name":"Mureș","mnemonic":"MS","regionId":7,"region":"Centru","pop1948":461403,"pop1956":513261,"pop1966":561598,"pop1977":605345,"pop1992":610053,"pop2002":580851,"pop2011":550846,"sortCode":28,"version":"2019/12/19"}},
{"type":"Feature","geometry":{"type":"Polygon","coordinates":[[[26.072725670281166,45.5058029345768],[26.233613440193572,45.314639111475984],[26.255945615729416,45.20849733784698],[26.4220267178223,45.17547345459722],[26.491984738632866,45.005375928212786],[26.605560284758962,44.85700920744339],[26.301827103308575,44.768889606989426],[25.970752459543185,44.71042269386562],[25.79138929076673,44.9447035166266],[25.53414991244311,45.216047661491366],[25.452545456558965,45.441356051901295],[25.681001358576435,45.50063399587247],[25.88861131198416,45.445811764279],[25.919358713405888,45.5195583900894],[26.072725670281166,45.5058029345768]]]},"properties":{"countyId":29,"countyCode":298,"name":"Prahova","mnemonic":"PH","regionId":3,"region":"Sud","pop1948":557776,"pop1956":623817,"pop1966":701057,"pop1977":817168,"pop1992":874349,"pop2002":829945,"pop2011":762886,"sortCode":31,"version":"2019/12/19"}},
{"type":"Feature","geometry":{"type":"Polygon","coordinates":[[[23.49360356978944,47.967824887236475],[23.594091406254115,47.84913666300173],[23.45087319147313,47.76181399647515],[23.22951196396989,47.5541546131382],[23.053116963886755,47.555364839715324],[23.106106873372834,47.44237055121647],[23.08714155304241,47.36341589745323],[22.768223662274742,47.41863124609528],[22.61267904880083,47.33475337688764],[22.529384506911647,47.41861105477708],[22.362620109969114,47.42756835731824],[22.18082411108986,47.60009608292601],[22.26453963735488,47.73115371723048],[22.687950551003073,47.7955663600727],[22.763225414919436,47.89273872224897],[23.26874015357542,48.08696813216907],[23.49360356978944,47.967824887236475]]]},"properties":{"countyId":30,"countyCode":305,"name":"Satu Mare","mnemonic":"SM","regionId":6,"region":"Nord-Vest","pop1948":312672,"pop1956":337351,"pop1966":359393,"pop1977":393840,"pop1992":400789,"pop2002":367281,"pop2011":344360,"sortCode":32,"version":"2019/12/19"}},
{"type":"Feature","geometry":{"type":"Polygon","coordinates":[[[24.946553095018434,46.079122988700206],[24.819490654059077,46.00554203256548],[24.639236187624125,45.795123106652426],[24.684930956153977,45.60412439036925],[24.523137459570233,45.580577071997446],[24.32432589844491,45.57644905319154],[24.17221190260405,45.51441493357847],[23.79087171368754,45.528087691403385],[23.70361807974591,45.49678435617965],[23.610625704738556,45.56365106911935],[23.591036582821225,45.676862707521536],[23.84661060489327,45.95748562785951],[23.89080481062076,46.04419988201234],[24.02693588962956,46.06284309776721],[24.189862529527144,46.18050675164103],[24.231314937452957,46.25965334789618],[24.676558017594843,46.25016483606039],[24.67249961005646,46.105087480106505],[24.946553095018434,46.079122988700206]]]},"properties":{"countyId":32,"countyCode":323,"name":"Sibiu","mnemonic":"SB","regionId":7,"region":"Centru","pop1948":335116,"pop1956":372687,"pop1966":414756,"pop1977":481645,"pop1992":452873,"pop2002":421724,"pop2011":397322,"sortCode":34,"version":"2019/12/19"}},
{"type":"Feature","geometry":{"type":"Polygon","coordinates":[[[26.098815609394133,47.97881575642894],[26.302570415105734,47.85556739660887],[26.53609665500557,47.61941707953789],[26.55445097831697,47.509752849143666],[26.700574445623612,47.47172917421828],[26.68536642455885,47.41382533706876],[26.507792622205276,47.271710156049174],[26.40551080528619,47.34032191005819],[26.252131586066852,47.2796377810109],[25.97854652341207,47.28872183397561],[25.743595028132564,47.22633452209203],[25.661585098162647,47.0916622239671],[25.425131982258534,47.18385741441736],[25.246712580261423,47.09793421486985],[25.063384744406417,47.13655325752687],[25.05060128671852,47.37749811910603],[25.093785286634883,47.50397608785952],[24.960837896041234,47.596865762812385],[25.05306290473296,47.64141172746149],[24.94710090272066,47.729138747399595],[25.116085165017623,47.767677921906376],[25.237825442568177,47.895328240652425],[25.861263560618923,47.970212035012246],[26.098815609394133,47.97881575642894]]]},"properties":{"countyId":33,"countyCode":332,"name":"Suceava","mnemonic":"SV","regionId":1,"region":"Nord-Est","pop1948":439751,"pop1956":507674,"pop1966":572781,"pop1977":633899,"pop1992":701830,"pop2002":688435,"pop2011":634810,"sortCode":35,"version":"2019/12/19"}},
{"type":"Feature","geometry":{"type":"Polygon","coordinates":[[[20.705315587804616,46.16134859942518],[21.110211893505003,45.9770772847261],[21.524240238506387,46.010334047436764],[21.76971878985383,45.91689540091111],[21.967473600443423,45.99435587465285],[22.12834842303659,45.93347011068279],[22.35279733222763,45.972697507016996],[22.383126430699434,45.88561525100094],[22.551457640599544,45.77864506512435],[22.426482800553764,45.66889503842564],[22.316485960602005,45.65985690887084],[22.074047231377858,45.57194399859435],[21.787257046244125,45.53294804785087],[21.674131154645814,45.585894638955274],[21.458709890513102,45.4767761054464],[21.44509344315707,45.39038844483736],[21.55610761646752,45.27243983107994],[21.479221877223168,45.1930858542119],[21.016551100966662,45.324619474141194],[20.83298640796317,45.47996265662828],[20.76576452553824,45.6126051225843],[20.802605269670018,45.73779548511312],[20.348333615580678,45.999629315669246],[20.27322908902562,46.09830597583597],[20.355646532180895,46.16966267904737],[20.50126340103448,46.1899730989488],[20.705315587804616,46.16134859942518]]]},"properties":{"countyId":35,"countyCode":350,"name":"Timiș","mnemonic":"TM","regionId":5,"region":"Vest","pop1948":588936,"pop1956":568881,"pop1966":607596,"pop1977":696884,"pop1992":700033,"pop2002":677926,"pop2011":683540,"sortCode":37,"version":"2019/12/19"}},
{"type":"Feature","geometry":{"type":"Polygon","coordinates":[[[28.995053002337862,44.67903421155336],[28.778620358638282,44.65499835427003],[28.365513653708632,44.69161419851682],[28.15348310731707,44.80031302235028],[28.074119178036046,44.8039037070081],[28.136463750413284,44.88193646816984],[28.11605574572321,45.258017066522406],[27.994819535814685,45.28675894146491],[28.03052649606022,45.40434503451008],[28.210776179169844,45.4671879147909],[28.349933290936082,45.31992249670044],[28.560985904567563,45.24960821315536],[28.780652060736507,45.237471424901],[29.250326202965713,45.43511005646022],[29.429972511563612,45.442679929918505],[29.589632267136505,45.39003809370084],[29.677755744717356,45.26926216057582],[29.594309915712703,44.832131899570214],[29.245384792532878,44.796794284715006],[28.995053002337862,44.67903421155336]]]},"properties":{"countyId":36,"countyCode":369,"name":"Tulcea","mnemonic":"TL","regionId":2,"region":"Sud-Est","pop1948":192228,"pop1956":223719,"pop1966":236709,"pop1977":254531,"pop1992":270997,"pop2002":256492,"pop2011":213083,"sortCode":38,"version":"2019/12/19"}},
{"type":"Feature","geometry":{"type":"Polygon","coordinates":[[[28.114685555227577,46.83761817566175],[28.2523101277703,46.61248886453542],[28.25862400187444,46.42714958049963],[28.11177533728044,46.23377690911546],[28.116051514336373,46.107641688177125],[27.926192010058475,46.15248252660642],[27.762425503795118,46.12813680971668],[27.503059876111752,46.13963805680103],[27.49282516348876,46.159230086682385],[27.476098571365263,46.32994432010192],[27.328010403603425,46.58564126894048],[27.326551448164896,46.69797819498487],[27.20622371456063,46.76986547943581],[27.202395369340014,46.88242729361388],[27.584684840916303,46.87767692718],[27.705358194038197,46.940089788258135],[27.81410275063912,46.88418441422787],[28.114685555227577,46.83761817566175]]]},"properties":{"countyId":37,"countyCode":378,"name":"Vaslui","mnemonic":"VS","regionId":1,"region":"Nord-Est","pop1948":344917,"pop1956":401626,"pop1966":431555,"pop1977":437251,"pop1992":461374,"pop2002":455049,"pop2011":395499,"sortCode":39,"version":"2019/12/19"}},
{"type":"Feature","geometry":{"type":"Polygon","coordinates":[[[24.523137459570233,45.580577071997446],[24.479034969112522,45.43779690656799],[24.513300483204663,45.18893737167347],[24.499750007223902,44.945439947623775],[24.438128302078393,44.845388317670974],[24.274625031265693,44.76879274246658],[24.32490423498385,44.560864664296865],[24.1430913890106,44.55544838492745],[24.08090538451377,44.49754582204772],[23.9290636195231,44.52813475212924],[23.7805065692656,44.71399854477414],[23.758087993015874,45.00567287676011],[23.855543018431426,45.15076432586423],[23.796264852712586,45.26102196727257],[23.590645465699563,45.353084689579944],[23.59727552996625,45.47348388575246],[23.70361807974591,45.49678435617965],[23.79087171368754,45.528087691403385],[24.17221190260405,45.51441493357847],[24.32432589844491,45.57644905319154],[24.523137459570233,45.580577071997446]]]},"properties":{"countyId":38,"countyCode":387,"name":"Vâlcea","mnemonic":"VL","regionId":4,"region":"Sud-Vest","pop1948":341590,"pop1956":362356,"pop1966":368779,"pop1977":414241,"pop1992":438388,"pop2002":413247,"pop2011":371714,"sortCode":40,"version":"2019/12/19"}},
{"type":"Feature","geometry":{"type":"Polygon","coordinates":[[[27.49282516348876,46.159230086682385],[27.503059876111752,46.13963805680103],[27.28511906143891,46.07935095753963],[27.22702598781544,46.00914346153908],[27.36235916271628,45.72938665287836],[27.508823013696468,45.624503571],[27.55852405586415,45.48839240074011],[27.4347348776612,45.39471862913225],[27.143414049813494,45.41037968205175],[26.97193925800788,45.535150922536275],[26.833899674349347,45.51784614324267],[26.678953481061715,45.60959271557796],[26.530065916925224,45.640851375832455],[26.392100780208903,45.802405275507034],[26.43999058459976,46.03889233816711],[26.58665651999118,46.04057465851676],[26.704592964343536,46.09389047570356],[26.923367824764746,46.06552052147234],[27.07395027537115,46.087562366072866],[27.13082136454281,46.14977292561063],[27.309387078578144,46.205428214714765],[27.49282516348876,46.159230086682385]]]},"properties":{"countyId":39,"countyCode":396,"name":"Vrancea","mnemonic":"VN","regionId":2,"region":"Sud-Est","pop1948":290183,"pop1956":326532,"pop1966":351292,"pop1977":369740,"pop1992":393408,"pop2002":387632,"pop2011":340310,"sortCode":41,"version":"2019/12/19"}},
{"type":"Feature","geometry":{"type":"Polygon","coordinates":[[[23.590645465699563,45.353084689579944],[23.796264852712586,45.26102196727257],[23.855543018431426,45.15076432586423],[23.758087993015874,45.00567287676011],[23.7805065692656,44.71399854477414],[23.716418632907637,44.59804344832364],[23.45504252902826,44.56957307871764],[23.293487192587254,44.67083098951802],[23.11070206640356,44.68915575332785],[22.908374518316332,44.826407706337854],[22.856847632072,44.98995330078826],[22.656637356302834,45.10817772970089],[22.558970810258735,45.15706332165272],[22.68625118089735,45.257972051419344],[22.835974120590517,45.28282821912104],[22.975074659178766,45.25413319575413],[23.334794603703124,45.32825476684675],[23.45247012767838,45.298459665713004],[23.590645465699563,45.353084689579944]]]},"properties":{"countyId":18,"countyCode":181,"name":"Gorj","mnemonic":"GJ","regionId":4,"region":"Sud-Vest","pop1948":280524,"pop1956":293031,"pop1966":298382,"pop1977":348521,"pop1992":401021,"pop2002":387308,"pop2011":341594,"sortCode":20,"version":"2019/12/19"}},
{"type":"Feature","geometry":{"type":"Polygon","coordinates":[[[23.59727552996625,45.47348388575246],[23.590645465699563,45.353084689579944],[23.45247012767838,45.298459665713004],[23.334794603703124,45.32825476684675],[22.975074659178766,45.25413319575413],[22.835974120590517,45.28282821912104],[22.68625118089735,45.257972051419344],[22.71271632634953,45.415646708401006],[22.633005325180697,45.57123267379074],[22.426482800553764,45.66889503842564],[22.551457640599544,45.77864506512435],[22.383126430699434,45.88561525100094],[22.35279733222763,45.972697507016996],[22.435244456362014,46.01664075924646],[22.43679995626259,46.20795691809215],[22.656889924137268,46.23543707438336],[22.748718369469913,46.351218992815376],[22.935615058277033,46.32470140376103],[23.11881248011559,46.04225867909357],[23.223555700181254,46.03292367678711],[23.422090460399687,45.67007678980883],[23.59727552996625,45.47348388575246]]]},"properties":{"countyId":20,"countyCode":207,"name":"Hunedoara","mnemonic":"HD","regionId":5,"region":"Vest","pop1948":306955,"pop1956":381902,"pop1966":474602,"pop1977":514436,"pop1992":547950,"pop2002":485712,"pop2011":418565,"sortCode":22,"version":"2019/12/19"}},
{"type":"Feature","geometry":{"type":"Polygon","coordinates":[[[22.81195243969267,46.56887102413852],[23.011664104730006,46.50350681185768],[23.23687576314666,46.49092094287371],[23.391728780633656,46.539629792055365],[23.67723045105222,46.44949523886001],[23.909881639186956,46.46333132185975],[23.98527786280566,46.43093092289744],[23.995782887274256,46.37182043887416],[24.231314937452957,46.25965334789618],[24.189862529527144,46.18050675164103],[24.02693588962956,46.06284309776721],[23.89080481062076,46.04419988201234],[23.84661060489327,45.95748562785951],[23.591036582821225,45.676862707521536],[23.610625704738556,45.56365106911935],[23.70361807974591,45.49678435617965],[23.59727552996625,45.47348388575246],[23.422090460399687,45.67007678980883],[23.223555700181254,46.03292367678711],[23.11881248011559,46.04225867909357],[22.935615058277033,46.32470140376103],[22.748718369469913,46.351218992815376],[22.676577642938756,46.40583710251029],[22.67471709060026,46.506572802784056],[22.81195243969267,46.56887102413852]]]},"properties":{"countyId":1,"countyCode":10,"name":"Alba","mnemonic":"AB","regionId":7,"region":"Centru","pop1948":361062,"pop1956":370800,"pop1966":382786,"pop1977":409634,"pop1992":413919,"pop2002":382747,"pop2011":342376,"sortCode":1,"version":"2019/12/19"}},
{"type":"Feature","geometry":{"type":"Polygon","coordinates":[[[24.02271522096474,47.36196180263207],[23.936031050479905,47.19929257740959],[24.096514753111624,47.12700540758123],[24.108068150206652,46.98527002190807],[24.214035663761162,46.90779113257614],[24.179577719104326,46.804709993658264],[23.98527786280566,46.43093092289744],[23.909881639186956,46.46333132185975],[23.67723045105222,46.44949523886001],[23.391728780633656,46.539629792055365],[23.23687576314666,46.49092094287371],[23.011664104730006,46.50350681185768],[22.81195243969267,46.56887102413852],[22.712500409624493,46.76329874873202],[22.778899172807304,46.89691206046054],[22.728178898734495,47.00750297820381],[22.89169251675168,46.9755025709449],[23.10343266479227,46.85381178167308],[23.291326107490352,46.89812857112434],[23.48759004449446,47.03454623939546],[23.49790989685238,47.15494219641914],[23.63386550623348,47.182626478410235],[23.841384302482034,47.340020740563205],[24.02271522096474,47.36196180263207]]]},"properties":{"countyId":12,"countyCode":127,"name":"Cluj","mnemonic":"CJ","regionId":6,"region":"Nord-Vest","pop1948":520073,"pop1956":580344,"pop1966":629746,"pop1977":715507,"pop1992":736301,"pop2002":702755,"pop2011":691106,"sortCode":13,"version":"2019/12/19"}},
{"type":"Feature","geometry":{"type":"Polygon","coordinates":[[[23.841384302482034,47.340020740563205],[23.63386550623348,47.182626478410235],[23.49790989685238,47.15494219641914],[23.48759004449446,47.03454623939546],[23.291326107490352,46.89812857112434],[23.10343266479227,46.85381178167308],[22.89169251675168,46.9755025709449],[22.728178898734495,47.00750297820381],[22.52074754557739,47.10681413491406],[22.516797113808945,47.23269803727388],[22.61267904880083,47.33475337688764],[22.768223662274742,47.41863124609528],[23.08714155304241,47.36341589745323],[23.106106873372834,47.44237055121647],[23.357586334933256,47.4159200373068],[23.49277086077758,47.36602121070291],[23.645357945108586,47.39296553975226],[23.72745296508915,47.32103872228575],[23.841384302482034,47.340020740563205]]]},"properties":{"countyId":31,"countyCode":314,"name":"Sălaj","mnemonic":"SJ","regionId":6,"region":"Nord-Vest","pop1948":262580,"pop1956":271989,"pop1966":263103,"pop1977":264569,"pop1992":266797,"pop2002":248015,"pop2011":224384,"sortCode":33,"version":"2019/12/19"}},
{"type":"Feature","geometry":{"type":"Polygon","coordinates":[[[28.017385629757328,44.34026564616973],[27.93613262357736,44.25063868354908],[27.629392085966487,44.20533859193972],[27.453439692869434,44.125090526369995],[27.27135599915705,44.12635218804566],[27.04193365269228,44.14463153988892],[26.77790718494135,44.082473186328095],[26.37995104582927,44.042965084340814],[26.427079951696996,44.15750871219122],[26.259966563429387,44.29500039802539],[26.401443029870933,44.438425299396094],[26.4160701043247,44.52169759700255],[26.79629127304699,44.51103539426759],[26.97173407975574,44.5289599855993],[27.206178043051466,44.483853983333915],[27.518514573971537,44.49716189977419],[28.017385629757328,44.34026564616973]]]},"properties":{"countyId":51,"countyCode":519,"name":"Călărași","mnemonic":"CL","regionId":3,"region":"Sud","pop1948":287722,"pop1956":318573,"pop1966":337261,"pop1977":338807,"pop1992":338804,"pop2002":324617,"pop2011":306691,"sortCode":12,"version":"2019/12/19"}},
{"type":"Feature","geometry":{"type":"Polygon","coordinates":[[[28.114685555227577,46.83761817566175],[27.81410275063912,46.88418441422787],[27.705358194038197,46.940089788258135],[27.584684840916303,46.87767692718],[27.202395369340014,46.88242729361388],[27.12195337665037,46.950744043757155],[27.239996518066878,47.01143685825765],[27.15587090432153,47.082518511645816],[27.030664237231278,47.03755171908861],[26.833838895928004,47.04303263996241],[26.614583761700178,47.10955966286272],[26.606179223953358,47.19977023954403],[26.507792622205276,47.271710156049174],[26.68536642455885,47.41382533706876],[26.700574445623612,47.47172917421828],[26.990515232334015,47.49256223756926],[27.100019285736753,47.54791924739736],[27.39136585958243,47.58948461395421],[27.540784080016657,47.487250011508344],[27.634257994074417,47.30234789762046],[27.738033408631253,47.28494506753967],[27.79554677591211,47.14934950962019],[28.09549988694302,46.979348195062755],[28.114685555227577,46.83761817566175]]]},"properties":{"countyId":22,"countyCode":225,"name":"Iași","mnemonic":"IS","regionId":1,"region":"Nord-Est","pop1948":431586,"pop1956":516635,"pop1966":619027,"pop1977":729243,"pop1992":811342,"pop2002":816910,"pop2011":772348,"sortCode":24,"version":"2019/12/19"}},
{"type":"Feature","geometry":{"type":"Polygon","coordinates":[[[26.507792622205276,47.271710156049174],[26.606179223953358,47.19977023954403],[26.614583761700178,47.10955966286272],[26.833838895928004,47.04303263996241],[27.030664237231278,47.03755171908861],[27.15587090432153,47.082518511645816],[27.239996518066878,47.01143685825765],[27.12195337665037,46.950744043757155],[27.202395369340014,46.88242729361388],[27.20622371456063,46.76986547943581],[26.66486259598441,46.73635810008087],[26.569933312091226,46.67870330866115],[26.39047215733138,46.651020682368966],[26.100735740657715,46.646934254695225],[25.975163293721756,46.69732829496771],[25.804339419242712,46.706779338407934],[25.765384611576973,46.88446874265802],[25.793125677600973,46.97879994680528],[25.661585098162647,47.0916622239671],[25.743595028132564,47.22633452209203],[25.97854652341207,47.28872183397561],[26.252131586066852,47.2796377810109],[26.40551080528619,47.34032191005819],[26.507792622205276,47.271710156049174]]]},"properties":{"countyId":27,"countyCode":270,"name":"Neamț","mnemonic":"NT","regionId":1,"region":"Nord-Est","pop1948":357348,"pop1956":419949,"pop1966":470206,"pop1977":532096,"pop1992":578420,"pop2002":554516,"pop2011":470766,"sortCode":29,"version":"2019/12/19"}},
{"type":"Feature","geometry":{"type":"Polygon","coordinates":[[[25.45124630447579,46.10410936311214],[25.58205042390688,46.021424167664875],[25.540352671088254,45.93914595511495],[25.676095045035648,45.76782630980035],[25.85830516720816,45.70967456387425],[26.10465873718442,45.549956506913475],[26.093341610170246,45.51632129967391],[26.072725670281166,45.5058029345768],[25.919358713405888,45.5195583900894],[25.88861131198416,45.445811764279],[25.681001358576435,45.50063399587247],[25.452545456558965,45.441356051901295],[25.321583850308134,45.381103324187976],[25.103219856288856,45.58520799148645],[24.684930956153977,45.60412439036925],[24.639236187624125,45.795123106652426],[24.819490654059077,46.00554203256548],[24.946553095018434,46.079122988700206],[25.019550495012762,46.14197353295609],[25.17325537500746,46.16553389301431],[25.329678222416902,46.17828653328357],[25.45124630447579,46.10410936311214]]]},"properties":{"countyId":8,"countyCode":83,"name":"Brașov","mnemonic":"BV","regionId":7,"region":"Centru","pop1948":300836,"pop1956":373941,"pop1966":442692,"pop1977":582863,"pop1992":643261,"pop2002":589028,"pop2011":549217,"sortCode":8,"version":"2019/12/19"}},
{"type":"Feature","geometry":{"type":"Polygon","coordinates":[[[26.263444450566542,46.246354008646705],[26.43999058459976,46.03889233816711],[26.392100780208903,45.802405275507034],[26.282711099088708,45.58696250967096],[26.212825913498943,45.621846182946015],[26.093341610170246,45.51632129967391],[26.10465873718442,45.549956506913475],[25.85830516720816,45.70967456387425],[25.676095045035648,45.76782630980035],[25.540352671088254,45.93914595511495],[25.58205042390688,46.021424167664875],[25.45124630447579,46.10410936311214],[25.505659573677548,46.18534833508497],[25.69875212739242,46.276346435931046],[25.847050695283453,46.124309956262444],[26.164584852557113,46.16071379052766],[26.263444450566542,46.246354008646705]]]},"properties":{"countyId":14,"countyCode":145,"name":"Covasna","mnemonic":"CV","regionId":7,"region":"Centru","pop1948":157166,"pop1956":172509,"pop1966":176858,"pop1977":199017,"pop1992":233256,"pop2002":222449,"pop2011":210177,"sortCode":15,"version":"2019/12/19"}},
{"type":"Feature","geometry":{"type":"Polygon","coordinates":[[[25.49115042039489,44.471994966297515],[25.468124205939144,44.3252595707551],[25.60420328791988,44.31927337961128],[25.699696482343647,44.25717473281001],[25.67619113230521,44.1130010703675],[25.598731382368527,44.03770311073567],[25.60689999308552,43.844483990456766],[25.671873298356434,43.69135329830556],[25.39014498263335,43.61903676288355],[25.252266674493022,43.68268971596747],[24.998502046783198,43.72730687571704],[24.752512348706308,43.687100277328476],[24.657073773633783,43.72365224881461],[24.745755773356986,43.81936683934529],[24.602278117586554,43.962125574446056],[24.613101584783934,44.014168284521425],[24.854429244049904,44.09516842229243],[24.81734779862949,44.361278953523176],[24.884028050230736,44.382649752126696],[25.234758371174003,44.42426568195404],[25.395058296590122,44.518162671626975],[25.49115042039489,44.471994966297515]]]},"properties":{"countyId":34,"countyCode":341,"name":"Teleorman","mnemonic":"TR","regionId":3,"region":"Sud","pop1948":487394,"pop1956":510488,"pop1966":516222,"pop1977":518943,"pop1992":483840,"pop2002":436025,"pop2011":380123,"sortCode":36,"version":"2019/12/19"}},
{"type":"Feature","geometry":{"type":"Polygon","coordinates":[[[25.452545456558965,45.441356051901295],[25.53414991244311,45.216047661491366],[25.79138929076673,44.9447035166266],[25.970752459543185,44.71042269386562],[25.99192072139667,44.612168184874136],[25.89074850074713,44.540967065683475],[25.53924569798058,44.53908156445418],[25.49115042039489,44.471994966297515],[25.395058296590122,44.518162671626975],[25.234758371174003,44.42426568195404],[25.29258819441622,44.551458809493504],[25.184641538775317,44.71582160544896],[25.167401750808597,44.92227204762632],[25.19687294686691,45.01857333779252],[25.146642636859546,45.12914431108116],[25.29371352200593,45.23209542584549],[25.321583850308134,45.381103324187976],[25.452545456558965,45.441356051901295]]]},"properties":{"countyId":15,"countyCode":154,"name":"Dâmbovița","mnemonic":"DB","regionId":3,"region":"Sud","pop1948":409272,"pop1956":438985,"pop1966":453241,"pop1977":527620,"pop1992":562041,"pop2002":541763,"pop2011":518745,"sortCode":16,"version":"2019/12/19"}},
{"type":"Feature","geometry":{"type":"Polygon","coordinates":[[[24.438128302078393,44.845388317670974],[24.542538244407684,44.86139264146338],[24.594637409127987,44.75100494389761],[24.68339923596106,44.73763784558172],[24.754559279493357,44.391371334646976],[24.884028050230736,44.382649752126696],[24.81734779862949,44.361278953523176],[24.854429244049904,44.09516842229243],[24.613101584783934,44.014168284521425],[24.602278117586554,43.962125574446056],[24.745755773356986,43.81936683934529],[24.657073773633783,43.72365224881461],[24.512653273886365,43.762520768105894],[24.348605545189137,43.69737117153717],[24.112728080136048,43.699578199867354],[24.263785248887267,43.998254982454114],[24.22261620959842,44.06928000174028],[24.226895070389233,44.22992961644843],[24.111949700266482,44.26682708777869],[24.045300687384536,44.36821769149446],[23.882295325482435,44.43329928881521],[23.9290636195231,44.52813475212924],[24.08090538451377,44.49754582204772],[24.1430913890106,44.55544838492745],[24.32490423498385,44.560864664296865],[24.274625031265693,44.76879274246658],[24.438128302078393,44.845388317670974]]]},"properties":{"countyId":28,"countyCode":289,"name":"Olt","mnemonic":"OT","regionId":4,"region":"Sud-Vest","pop1948":442442,"pop1956":458982,"pop1966":476513,"pop1977":518804,"pop1992":523291,"pop2002":489274,"pop2011":436400,"sortCode":30,"version":"2019/12/19"}},
{"type":"Feature","geometry":{"type":"Polygon","coordinates":[[[23.7805065692656,44.71399854477414],[23.9290636195231,44.52813475212924],[23.882295325482435,44.43329928881521],[24.045300687384536,44.36821769149446],[24.111949700266482,44.26682708777869],[24.226895070389233,44.22992961644843],[24.22261620959842,44.06928000174028],[24.263785248887267,43.998254982454114],[24.112728080136048,43.699578199867354],[23.700779252719954,43.804121513993394],[23.618748153756744,43.79134542200179],[23.41523029589255,43.852807085241714],[23.053785493046853,43.79560861656125],[22.86651832528921,43.83832184019747],[22.891742786248386,43.991807280856186],[22.96386318765465,44.098543069926976],[23.109882668795954,44.15015892352755],[23.09391429226243,44.26245672670934],[23.218201427140663,44.37570029100817],[23.199829521137357,44.468022912151795],[23.45504252902826,44.56957307871764],[23.716418632907637,44.59804344832364],[23.7805065692656,44.71399854477414]]]},"properties":{"countyId":16,"countyCode":163,"name":"Dolj","mnemonic":"DJ","regionId":4,"region":"Sud-Vest","pop1948":615301,"pop1956":642028,"pop1966":691116,"pop1977":750328,"pop1992":762142,"pop2002":734231,"pop2011":660544,"sortCode":17,"version":"2019/12/19"}},
{"type":"Feature","geometry":{"type":"Polygon","coordinates":[[[25.89074850074713,44.540967065683475],[25.870027794979926,44.35741477135438],[26.13817219311513,44.2365122940466],[26.259966563429387,44.29500039802539],[26.427079951696996,44.15750871219122],[26.37995104582927,44.042965084340814],[26.111660249765222,43.97222126306447],[25.88434368498435,43.78348113161729],[25.671873298356434,43.69135329830556],[25.60689999308552,43.844483990456766],[25.598731382368527,44.03770311073567],[25.67619113230521,44.1130010703675],[25.699696482343647,44.25717473281001],[25.60420328791988,44.31927337961128],[25.468124205939144,44.3252595707551],[25.49115042039489,44.471994966297515],[25.53924569798058,44.53908156445418],[25.89074850074713,44.540967065683475]]]},"properties":{"countyId":52,"countyCode":528,"name":"Giurgiu","mnemonic":"GR","regionId":3,"region":"Sud","pop1948":313793,"pop1956":325045,"pop1966":320120,"pop1977":327494,"pop1992":313352,"pop2002":297859,"pop2011":281422,"sortCode":19,"version":"2019/12/19"}},
{"type":"Feature","geometry":{"type":"Polygon","coordinates":[[[26.100823979989947,44.54080650375648],[26.214364619973445,44.434869385265515],[26.11176816400856,44.361216954440245],[25.976312048747342,44.40640867254178],[26.008564497958883,44.514820575982306],[26.100823979989947,44.54080650375648]]]},"properties":{"countyId":40,"countyCode":403,"name":"București","mnemonic":"B","regionId":8,"region":"București-Ilfov","pop1948":1025180,"pop1956":1177661,"pop1966":1366684,"pop1977":1807239,"pop1992":2067545,"pop2002":1926334,"pop2011":1883425,"sortCode":42,"version":"2019/12/19"}},
{"type":"Feature","geometry":{"type":"Polygon","coordinates":[[[26.301827103308575,44.768889606989426],[26.374175031913598,44.72049102195561],[26.4160701043247,44.52169759700255],[26.401443029870933,44.438425299396094],[26.259966563429387,44.29500039802539],[26.13817219311513,44.2365122940466],[25.870027794979926,44.35741477135438],[25.89074850074713,44.540967065683475],[25.99192072139667,44.612168184874136],[25.970752459543185,44.71042269386562],[26.301827103308575,44.768889606989426]],[[26.100823979989947,44.54080650375648],[26.008564497958883,44.514820575982306],[25.976312048747342,44.40640867254178],[26.11176816400856,44.361216954440245],[26.214364619973445,44.434869385265515],[26.100823979989947,44.54080650375648]]]},"properties":{"countyId":23,"countyCode":234,"name":"Ilfov","mnemonic":"IF","regionId":8,"region":"București-Ilfov","pop1948":167533,"pop1956":196265,"pop1966":229773,"pop1977":287738,"pop1992":286965,"pop2002":300123,"pop2011":388738,"sortCode":25,"version":"2019/12/19"}}
]}