JUDET;VALOARE
AB;1122
AG;13
AR;14
BC;15
BH;16
BN;17
BR;18
BT;19
BUC;20
BV;21
BZ;22
CJ;23
CL;23
CS;55
CT;66
CV;77
DB;45
DJ;55
GJ;66
GL;77
GR;8
HD;9
HR;8
IF;5
IL;6
IS;88
MH;99
MM;77
MS;55
NT;33
OT;98
PH;12
SB;23
SJ;24
SM;66
SV;77
TL;88
TM;66
TR;44
VL;5
VN;55
VS;6
